{
  "en": {
    "translation": {
      "titulo404":"Page not found"
    }
  },
  "es": {
    "translation": {
      "bienvenido":"Bienvenido",
      "formUsuario":"Usuario",
      "formClave":"Contraseña",
      "olvideClave":"Olvidé mi contraseña",
      "buttonLogin":"Ingresar",
      "":"",
      "titulo404":"No se encontro la página que buscaba"
    }
  }
}
